[{
    "name": "NewModel",
    "type": "uml_class_diagram",
    "modules": [{
        "interfaces": [],
        "classes": [{
            "name": "Persona",
            "attributes": [{
                "name": "Nombre",
                "type": "String"
            }],
            "id": "_XQY0oE9eEeuLacrMlaDQLA"
        }],
        "usage": [],
        "name": "NewModel_module",
        "packages": []
    }],
    "sourcefile": "NewModel"
}]