[{
    "enums": [{
        "ElementType": "EnumerationLiteral",
        "ElementName": "Color",
        "LiteralName": "BLACK",
        "OperationType": "Delete",
        "ElementID": "_ng1KcHEiEeuvZLw2CsBJbA"
    }],
    "interfaces": [],
    "classes": [],
    "usage": [],
    "packages": []
}]