[{
    "name": "NewModel",
    "type": "uml_class_diagram",
    "modules": [{
        "associations": [{
            "source": {
                "name": "ClassA",
                "id": "_WsjqQHFJEeujU6ye2mr9OA"
            },
            "target": {
                "name": "ClassB",
                "aggregation": "shared",
                "id": "_WsjqQHFJEeujU6ye2mr9OA"
            }
        }],
        "interfaces": [],
        "classes": [
            {
                "name": "ClassA",
                "attributes": [{
                    "name": "property1",
                    "type": "String",
                    "value": {
                        "upperValue": "1",
                        "lowerValue": "0"
                    }
                }],
                "id": "_5qxaQHFBEeujU6ye2mr9OA"
            },
            {
                "operations": [{
                    "name": "Operation_1",
                    "returnType": "any"
                }],
                "name": "ClassB",
                "id": "_7bZDUHFBEeujU6ye2mr9OA"
            }
        ],
        "usage": [],
        "name": "NewModel_module",
        "packages": [],
        "primitiveType": [{
            "name": "String",
            "id": "_eJDqUHFEEeujU6ye2mr9OA"
        }]
    }],
    "sourcefile": "NewModel"
}]