[{
    "name": "MyThaiStar.uml",
    "type": "uml_class_diagram",
    "modules": [{
        "interfaces": [{
            "operations": [
                {
                    "name": "getBooking",
                    "parameters": [{
                        "name": "id",
                        "type": "long"
                    }]
                },
                {
                    "name": "saveBooking",
                    "parameters": [{"name": "booking"}]
                },
                {
                    "name": "deleteBooking",
                    "parameters": [{
                        "name": "id",
                        "type": "long"
                    }],
                    "returnType": "any"
                },
                {
                    "name": "findBookingsByPost",
                    "parameters": [{"name": "searchCriteriaTo"}]
                },
                {
                    "name": "getInvitedGuest",
                    "parameters": [{
                        "name": "id",
                        "type": "long"
                    }]
                },
                {
                    "name": "saveInvitedGuest",
                    "parameters": [{"name": "invitedguest"}]
                },
                {
                    "name": "deleteInvitedGuest",
                    "parameters": [{
                        "name": "id",
                        "type": "long"
                    }],
                    "returnType": "any"
                },
                {
                    "name": "findInvitedGuestsByPost",
                    "parameters": [{"name": "searchCriteriaTo"}]
                },
                {
                    "name": "acceptInvite",
                    "parameters": [{
                        "name": "guestToken",
                        "type": "String"
                    }]
                },
                {
                    "name": "declineInvite",
                    "parameters": [{
                        "name": "guestToken",
                        "type": "String"
                    }]
                },
                {
                    "name": "cancelInvite",
                    "parameters": [{
                        "name": "bookingToken",
                        "type": "String"
                    }],
                    "returnType": "any"
                },
                {
                    "name": "getTable",
                    "parameters": [{
                        "name": "id",
                        "type": "long"
                    }]
                },
                {
                    "name": "saveTable",
                    "parameters": [{"name": "table"}]
                },
                {
                    "name": "deleteTable",
                    "parameters": [{
                        "name": "id",
                        "type": "long"
                    }],
                    "returnType": "any"
                },
                {
                    "name": "findTablesByPost",
                    "parameters": [{"name": "searchCriteriaTo"}]
                }
            ],
            "name": "BookingmanagementRestService",
            "id": "_OolE8C_bEeu3AaUHhOAxrQ"
        }],
        "classes": [],
        "usage": [
            {
                "supplier": "_OuWVwC_bEeu3AaUHhOAxrQ",
                "name": "MyThaiStar.uml_security",
                "client": "_OWqOgC_bEeu3AaUHhOAxrQ",
                "id": "_PafqEC_bEeu3AaUHhOAxrQ"
            },
            {
                "supplier": "_OuaAIC_bEeu3AaUHhOAxrQ",
                "name": "MyThaiStar.uml_time",
                "client": "_OWqOgC_bEeu3AaUHhOAxrQ",
                "id": "_PagRIC_bEeu3AaUHhOAxrQ"
            },
            {
                "supplier": "_OulmUC_bEeu3AaUHhOAxrQ",
                "name": "MyThaiStar.uml_util",
                "client": "_OWqOgC_bEeu3AaUHhOAxrQ",
                "id": "_PagRIS_bEeu3AaUHhOAxrQ"
            },
            {
                "supplier": "_Ou3TIC_bEeu3AaUHhOAxrQ",
                "name": "MyThaiStar.uml_security",
                "client": "_OWqOgC_bEeu3AaUHhOAxrQ",
                "id": "_PagRIi_bEeu3AaUHhOAxrQ"
            },
            {
                "supplier": "_Ou4hQC_bEeu3AaUHhOAxrQ",
                "name": "MyThaiStar.uml_inject",
                "client": "_OWqOgC_bEeu3AaUHhOAxrQ",
                "id": "_PagRIy_bEeu3AaUHhOAxrQ"
            },
            {
                "supplier": "_Ou9ZwC_bEeu3AaUHhOAxrQ",
                "name": "MyThaiStar.uml_http",
                "client": "_OWqOgC_bEeu3AaUHhOAxrQ",
                "id": "_Pag4MC_bEeu3AaUHhOAxrQ"
            },
            {
                "supplier": "_Ou-A0C_bEeu3AaUHhOAxrQ",
                "name": "MyThaiStar.uml_transaction",
                "client": "_OWqOgC_bEeu3AaUHhOAxrQ",
                "id": "_Pag4MS_bEeu3AaUHhOAxrQ"
            },
            {
                "supplier": "_Ou_O8S_bEeu3AaUHhOAxrQ",
                "name": "MyThaiStar.uml_slf4j",
                "client": "_OWqOgC_bEeu3AaUHhOAxrQ",
                "id": "_Pag4Mi_bEeu3AaUHhOAxrQ"
            },
            {
                "supplier": "_OvC5US_bEeu3AaUHhOAxrQ",
                "name": "MyThaiStar.uml_annotation",
                "client": "_OWqOgC_bEeu3AaUHhOAxrQ",
                "id": "_Pag4My_bEeu3AaUHhOAxrQ"
            },
            {
                "supplier": "_OvDgYS_bEeu3AaUHhOAxrQ",
                "name": "MyThaiStar.uml_domain",
                "client": "_OWqOgC_bEeu3AaUHhOAxrQ",
                "id": "_Pag4NC_bEeu3AaUHhOAxrQ"
            },
            {
                "supplier": "_OvPtoS_bEeu3AaUHhOAxrQ",
                "name": "MyThaiStar.uml_request",
                "client": "_OWqOgC_bEeu3AaUHhOAxrQ",
                "id": "_Pag4NS_bEeu3AaUHhOAxrQ"
            },
            {
                "supplier": "_OvTYAC_bEeu3AaUHhOAxrQ",
                "name": "MyThaiStar.uml_exception",
                "client": "_OWqOgC_bEeu3AaUHhOAxrQ",
                "id": "_PahfQC_bEeu3AaUHhOAxrQ"
            },
            {
                "supplier": "_OvUmIC_bEeu3AaUHhOAxrQ",
                "name": "MyThaiStar.uml_to",
                "client": "_OWqOgC_bEeu3AaUHhOAxrQ",
                "id": "_PahfQS_bEeu3AaUHhOAxrQ"
            },
            {
                "supplier": "_OviBgS_bEeu3AaUHhOAxrQ",
                "name": "MyThaiStar.uml_api",
                "client": "_OWqOgC_bEeu3AaUHhOAxrQ",
                "id": "_PahfQi_bEeu3AaUHhOAxrQ"
            },
            {
                "supplier": "_OvlE0C_bEeu3AaUHhOAxrQ",
                "name": "MyThaiStar.uml_repo",
                "client": "_OWqOgC_bEeu3AaUHhOAxrQ",
                "id": "_PahfQy_bEeu3AaUHhOAxrQ"
            },
            {
                "supplier": "_Ot638S_bEeu3AaUHhOAxrQ",
                "name": "MyThaiStar.uml_api",
                "client": "_OWqOgC_bEeu3AaUHhOAxrQ",
                "id": "_PahfRC_bEeu3AaUHhOAxrQ"
            },
            {
                "supplier": "_OvpWQS_bEeu3AaUHhOAxrQ",
                "name": "MyThaiStar.uml_security",
                "client": "_OWqOgC_bEeu3AaUHhOAxrQ",
                "id": "_PahfRS_bEeu3AaUHhOAxrQ"
            },
            {
                "supplier": "_OuI6YC_bEeu3AaUHhOAxrQ",
                "name": "MyThaiStar.uml_base",
                "client": "_OWqOgC_bEeu3AaUHhOAxrQ",
                "id": "_PahfRi_bEeu3AaUHhOAxrQ"
            },
            {
                "supplier": "_OvqkYS_bEeu3AaUHhOAxrQ",
                "name": "MyThaiStar.uml_api",
                "client": "_OWqOgC_bEeu3AaUHhOAxrQ",
                "id": "_PahfRy_bEeu3AaUHhOAxrQ"
            },
            {
                "supplier": "_OvsZkC_bEeu3AaUHhOAxrQ",
                "name": "MyThaiStar.uml_to",
                "client": "_OWqOgC_bEeu3AaUHhOAxrQ",
                "id": "_PaiGUC_bEeu3AaUHhOAxrQ"
            },
            {
                "supplier": "_Ovvc4S_bEeu3AaUHhOAxrQ",
                "name": "MyThaiStar.uml_api",
                "client": "_OWqOgC_bEeu3AaUHhOAxrQ",
                "id": "_PaiGUS_bEeu3AaUHhOAxrQ"
            },
            {
                "supplier": "_OvxSEC_bEeu3AaUHhOAxrQ",
                "name": "MyThaiStar.uml_to",
                "client": "_OWqOgC_bEeu3AaUHhOAxrQ",
                "id": "_PaiGUi_bEeu3AaUHhOAxrQ"
            },
            {
                "supplier": "_PUER8C_bEeu3AaUHhOAxrQ",
                "name": "MyThaiStar.uml_validation",
                "client": "_OWqOgC_bEeu3AaUHhOAxrQ",
                "id": "_PaiGUy_bEeu3AaUHhOAxrQ"
            },
            {
                "supplier": "_PUE5AS_bEeu3AaUHhOAxrQ",
                "name": "MyThaiStar.uml_rs",
                "client": "_OWqOgC_bEeu3AaUHhOAxrQ",
                "id": "_PaiGVC_bEeu3AaUHhOAxrQ"
            },
            {
                "supplier": "_PUJxgC_bEeu3AaUHhOAxrQ",
                "name": "MyThaiStar.uml_core",
                "client": "_OWqOgC_bEeu3AaUHhOAxrQ",
                "id": "_PaiGVS_bEeu3AaUHhOAxrQ"
            },
            {
                "supplier": "_PV6FAy_bEeu3AaUHhOAxrQ",
                "name": "MyThaiStar.uml_api",
                "client": "_OWqOgC_bEeu3AaUHhOAxrQ",
                "id": "_PaitYC_bEeu3AaUHhOAxrQ"
            },
            {
                "supplier": "_PV7TIC_bEeu3AaUHhOAxrQ",
                "name": "MyThaiStar.uml_api",
                "client": "_OWqOgC_bEeu3AaUHhOAxrQ",
                "id": "_PaitYS_bEeu3AaUHhOAxrQ"
            },
            {
                "supplier": "_PV76MC_bEeu3AaUHhOAxrQ",
                "name": "MyThaiStar.uml_datatype",
                "client": "_OWqOgC_bEeu3AaUHhOAxrQ",
                "id": "_PaitYi_bEeu3AaUHhOAxrQ"
            },
            {
                "supplier": "_PV8hQC_bEeu3AaUHhOAxrQ",
                "name": "MyThaiStar.uml_to",
                "client": "_OWqOgC_bEeu3AaUHhOAxrQ",
                "id": "_PaitYy_bEeu3AaUHhOAxrQ"
            },
            {
                "supplier": "_PV9IUC_bEeu3AaUHhOAxrQ",
                "name": "MyThaiStar.uml_base",
                "client": "_OWqOgC_bEeu3AaUHhOAxrQ",
                "id": "_PaitZC_bEeu3AaUHhOAxrQ"
            },
            {
                "supplier": "_PV_kkS_bEeu3AaUHhOAxrQ",
                "name": "MyThaiStar.uml_api",
                "client": "_OWqOgC_bEeu3AaUHhOAxrQ",
                "id": "_PaitZS_bEeu3AaUHhOAxrQ"
            },
            {
                "supplier": "_PWAysC_bEeu3AaUHhOAxrQ",
                "name": "MyThaiStar.uml_repo",
                "client": "_OWqOgC_bEeu3AaUHhOAxrQ",
                "id": "_PajUcC_bEeu3AaUHhOAxrQ"
            },
            {
                "supplier": "_PV3BsS_bEeu3AaUHhOAxrQ",
                "name": "MyThaiStar.uml_api",
                "client": "_OWqOgC_bEeu3AaUHhOAxrQ",
                "id": "_PajUcS_bEeu3AaUHhOAxrQ"
            }
        ],
        "name": "MyThaiStar.uml_module",
        "elementImport": [
            {
                "id": "_OnWV4C_bEeu3AaUHhOAxrQ",
                "importedElement": {
                    "href": "pathmap://UML_LIBRARIES/JavaPrimitiveTypes.library.uml#boolean",
                    "type": "PrimitiveType"
                }
            },
            {
                "id": "_OnW88C_bEeu3AaUHhOAxrQ",
                "importedElement": {
                    "href": "pathmap://UML_LIBRARIES/JavaPrimitiveTypes.library.uml#byte",
                    "type": "PrimitiveType"
                }
            },
            {
                "id": "_OnW88S_bEeu3AaUHhOAxrQ",
                "importedElement": {
                    "href": "pathmap://UML_LIBRARIES/JavaPrimitiveTypes.library.uml#char",
                    "type": "PrimitiveType"
                }
            },
            {
                "id": "_OnW88i_bEeu3AaUHhOAxrQ",
                "importedElement": {
                    "href": "pathmap://UML_LIBRARIES/JavaPrimitiveTypes.library.uml#double",
                    "type": "PrimitiveType"
                }
            },
            {
                "id": "_OnXkAC_bEeu3AaUHhOAxrQ",
                "importedElement": {
                    "href": "pathmap://UML_LIBRARIES/JavaPrimitiveTypes.library.uml#float",
                    "type": "PrimitiveType"
                }
            },
            {
                "id": "_OnXkAS_bEeu3AaUHhOAxrQ",
                "importedElement": {
                    "href": "pathmap://UML_LIBRARIES/JavaPrimitiveTypes.library.uml#int",
                    "type": "PrimitiveType"
                }
            },
            {
                "id": "_OnYyIC_bEeu3AaUHhOAxrQ",
                "importedElement": {
                    "href": "pathmap://UML_LIBRARIES/JavaPrimitiveTypes.library.uml#long",
                    "type": "PrimitiveType"
                }
            },
            {
                "id": "_OnYyIS_bEeu3AaUHhOAxrQ",
                "importedElement": {
                    "href": "pathmap://UML_LIBRARIES/JavaPrimitiveTypes.library.uml#short",
                    "type": "PrimitiveType"
                }
            },
            {
                "id": "_OnZZMC_bEeu3AaUHhOAxrQ",
                "importedElement": {
                    "href": "pathmap://UML_LIBRARIES/UMLPrimitiveTypes.library.uml#Boolean",
                    "type": "PrimitiveType"
                }
            },
            {
                "id": "_OnZZMS_bEeu3AaUHhOAxrQ",
                "importedElement": {
                    "href": "pathmap://UML_LIBRARIES/UMLPrimitiveTypes.library.uml#Integer",
                    "type": "PrimitiveType"
                }
            },
            {
                "id": "_OnZZMi_bEeu3AaUHhOAxrQ",
                "importedElement": {
                    "href": "pathmap://UML_LIBRARIES/UMLPrimitiveTypes.library.uml#String",
                    "type": "PrimitiveType"
                }
            },
            {
                "id": "_OnZZMy_bEeu3AaUHhOAxrQ",
                "importedElement": {
                    "href": "pathmap://UML_LIBRARIES/UMLPrimitiveTypes.library.uml#UnlimitedNatural",
                    "type": "PrimitiveType"
                }
            }
        ],
        "packages": [
            {
                "interfaces": [],
                "component": [],
                "classes": [],
                "name": "com_module",
                "id": "_Ot5p0C_bEeu3AaUHhOAxrQ",
                "packages": [{
                    "interfaces": [],
                    "component": [],
                    "classes": [],
                    "name": "devonfw_module",
                    "id": "_Ot6Q4C_bEeu3AaUHhOAxrQ",
                    "packages": [{
                        "interfaces": [],
                        "component": [],
                        "classes": [],
                        "name": "application_module",
                        "id": "_Ot6Q4S_bEeu3AaUHhOAxrQ",
                        "packages": [{
                            "interfaces": [],
                            "component": [],
                            "classes": [],
                            "name": "mtsj_module",
                            "id": "_Ot6Q4i_bEeu3AaUHhOAxrQ",
                            "packages": [
                                {
                                    "interfaces": [],
                                    "component": [],
                                    "classes": [],
                                    "name": "bookingmanagement_module",
                                    "id": "_Ot6Q4y_bEeu3AaUHhOAxrQ",
                                    "packages": [
                                        {
                                            "interfaces": [],
                                            "component": [],
                                            "classes": [],
                                            "name": "logic_module",
                                            "id": "_Ot638C_bEeu3AaUHhOAxrQ",
                                            "packages": [{
                                                "dataTypes": [{
                                                    "name": "Bookingmanagement",
                                                    "id": "_Ot8GEC_bEeu3AaUHhOAxrQ"
                                                }],
                                                "interfaces": [],
                                                "component": [],
                                                "classes": [],
                                                "name": "api_module",
                                                "id": "_Ot638S_bEeu3AaUHhOAxrQ",
                                                "packages": []
                                            }]
                                        },
                                        {
                                            "interfaces": [],
                                            "component": [],
                                            "classes": [],
                                            "name": "common_module",
                                            "id": "_OvSw8C_bEeu3AaUHhOAxrQ",
                                            "packages": [{
                                                "interfaces": [],
                                                "component": [],
                                                "classes": [],
                                                "name": "api_module",
                                                "id": "_OvSw8S_bEeu3AaUHhOAxrQ",
                                                "packages": [
                                                    {
                                                        "dataTypes": [{
                                                            "name": "CancelInviteNotAllowedException",
                                                            "id": "_OvTYAS_bEeu3AaUHhOAxrQ"
                                                        }],
                                                        "interfaces": [],
                                                        "component": [],
                                                        "classes": [],
                                                        "name": "exception_module",
                                                        "id": "_OvTYAC_bEeu3AaUHhOAxrQ",
                                                        "packages": []
                                                    },
                                                    {
                                                        "dataTypes": [
                                                            {
                                                                "name": "BookingCto",
                                                                "id": "_OvUmIS_bEeu3AaUHhOAxrQ"
                                                            },
                                                            {
                                                                "name": "BookingEto",
                                                                "id": "_OvWbUC_bEeu3AaUHhOAxrQ"
                                                            },
                                                            {
                                                                "name": "BookingSearchCriteriaTo",
                                                                "id": "_OvY3kC_bEeu3AaUHhOAxrQ"
                                                            },
                                                            {
                                                                "name": "InvitedGuestEto",
                                                                "id": "_OvaFsC_bEeu3AaUHhOAxrQ"
                                                            },
                                                            {
                                                                "name": "InvitedGuestSearchCriteriaTo",
                                                                "id": "_Ovch8C_bEeu3AaUHhOAxrQ"
                                                            },
                                                            {
                                                                "name": "TableEto",
                                                                "id": "_OvdwEC_bEeu3AaUHhOAxrQ"
                                                            },
                                                            {
                                                                "name": "TableSearchCriteriaTo",
                                                                "id": "_OvgMUC_bEeu3AaUHhOAxrQ"
                                                            }
                                                        ],
                                                        "interfaces": [],
                                                        "component": [],
                                                        "classes": [],
                                                        "name": "to_module",
                                                        "id": "_OvUmIC_bEeu3AaUHhOAxrQ",
                                                        "packages": []
                                                    }
                                                ]
                                            }]
                                        },
                                        {
                                            "interfaces": [],
                                            "component": [],
                                            "classes": [],
                                            "name": "dataaccess_module",
                                            "id": "_OviBgC_bEeu3AaUHhOAxrQ",
                                            "packages": [{
                                                "dataTypes": [
                                                    {
                                                        "name": "BookingEntity",
                                                        "id": "_OviBgi_bEeu3AaUHhOAxrQ"
                                                    },
                                                    {
                                                        "name": "InvitedGuestEntity",
                                                        "id": "_OvjPoC_bEeu3AaUHhOAxrQ"
                                                    },
                                                    {
                                                        "name": "TableEntity",
                                                        "id": "_OvkdwC_bEeu3AaUHhOAxrQ"
                                                    }
                                                ],
                                                "interfaces": [],
                                                "component": [],
                                                "classes": [],
                                                "name": "api_module",
                                                "id": "_OviBgS_bEeu3AaUHhOAxrQ",
                                                "packages": [{
                                                    "dataTypes": [
                                                        {
                                                            "name": "BookingRepository",
                                                            "id": "_Ovlr4C_bEeu3AaUHhOAxrQ"
                                                        },
                                                        {
                                                            "name": "InvitedGuestRepository",
                                                            "id": "_Ovm6AC_bEeu3AaUHhOAxrQ"
                                                        },
                                                        {
                                                            "name": "TableRepository",
                                                            "id": "_OvoIIC_bEeu3AaUHhOAxrQ"
                                                        }
                                                    ],
                                                    "interfaces": [],
                                                    "component": [],
                                                    "classes": [],
                                                    "name": "repo_module",
                                                    "id": "_OvlE0C_bEeu3AaUHhOAxrQ",
                                                    "packages": []
                                                }]
                                            }]
                                        }
                                    ]
                                },
                                {
                                    "interfaces": [],
                                    "component": [],
                                    "classes": [],
                                    "name": "general_module",
                                    "id": "_OuITUC_bEeu3AaUHhOAxrQ",
                                    "packages": [
                                        {
                                            "interfaces": [],
                                            "component": [],
                                            "classes": [],
                                            "name": "logic_module",
                                            "id": "_OuITUS_bEeu3AaUHhOAxrQ",
                                            "packages": [{
                                                "dataTypes": [{
                                                    "name": "AbstractComponentFacade",
                                                    "id": "_OuJhcC_bEeu3AaUHhOAxrQ"
                                                }],
                                                "interfaces": [],
                                                "component": [],
                                                "classes": [],
                                                "name": "base_module",
                                                "id": "_OuI6YC_bEeu3AaUHhOAxrQ",
                                                "packages": []
                                            }]
                                        },
                                        {
                                            "interfaces": [],
                                            "component": [],
                                            "classes": [],
                                            "name": "common_module",
                                            "id": "_OvovMS_bEeu3AaUHhOAxrQ",
                                            "packages": [
                                                {
                                                    "interfaces": [],
                                                    "component": [],
                                                    "classes": [],
                                                    "name": "impl_module",
                                                    "id": "_OvpWQC_bEeu3AaUHhOAxrQ",
                                                    "packages": [{
                                                        "dataTypes": [{
                                                            "name": "ApplicationAccessControlConfig",
                                                            "id": "_OvpWQi_bEeu3AaUHhOAxrQ"
                                                        }],
                                                        "interfaces": [],
                                                        "component": [],
                                                        "classes": [],
                                                        "name": "security_module",
                                                        "id": "_OvpWQS_bEeu3AaUHhOAxrQ",
                                                        "packages": []
                                                    }]
                                                },
                                                {
                                                    "dataTypes": [{
                                                        "name": "UserProfile",
                                                        "id": "_PV7TIS_bEeu3AaUHhOAxrQ"
                                                    }],
                                                    "interfaces": [],
                                                    "component": [],
                                                    "classes": [],
                                                    "name": "api_module",
                                                    "id": "_PV7TIC_bEeu3AaUHhOAxrQ",
                                                    "packages": [
                                                        {
                                                            "dataTypes": [{
                                                                "name": "Role",
                                                                "id": "_PV76MS_bEeu3AaUHhOAxrQ"
                                                            }],
                                                            "interfaces": [],
                                                            "component": [],
                                                            "classes": [],
                                                            "name": "datatype_module",
                                                            "id": "_PV76MC_bEeu3AaUHhOAxrQ",
                                                            "packages": []
                                                        },
                                                        {
                                                            "dataTypes": [{
                                                                "name": "UserDetailsClientTo",
                                                                "id": "_PV8hQS_bEeu3AaUHhOAxrQ"
                                                            }],
                                                            "interfaces": [],
                                                            "component": [],
                                                            "classes": [],
                                                            "name": "to_module",
                                                            "id": "_PV8hQC_bEeu3AaUHhOAxrQ",
                                                            "packages": []
                                                        }
                                                    ]
                                                },
                                                {
                                                    "dataTypes": [{
                                                        "name": "QrCodeService",
                                                        "id": "_PV9IUS_bEeu3AaUHhOAxrQ"
                                                    }],
                                                    "interfaces": [],
                                                    "component": [],
                                                    "classes": [],
                                                    "name": "base_module",
                                                    "id": "_PV9IUC_bEeu3AaUHhOAxrQ",
                                                    "packages": []
                                                }
                                            ]
                                        }
                                    ]
                                },
                                {
                                    "interfaces": [],
                                    "component": [],
                                    "classes": [],
                                    "name": "mailservice_module",
                                    "id": "_Ovp9US_bEeu3AaUHhOAxrQ",
                                    "packages": [{
                                        "interfaces": [],
                                        "component": [],
                                        "classes": [],
                                        "name": "logic_module",
                                        "id": "_OvqkYC_bEeu3AaUHhOAxrQ",
                                        "packages": [{
                                            "dataTypes": [{
                                                "name": "Mail",
                                                "id": "_OvqkYi_bEeu3AaUHhOAxrQ"
                                            }],
                                            "interfaces": [],
                                            "component": [],
                                            "classes": [],
                                            "name": "api_module",
                                            "id": "_OvqkYS_bEeu3AaUHhOAxrQ",
                                            "packages": []
                                        }]
                                    }]
                                },
                                {
                                    "interfaces": [],
                                    "component": [],
                                    "classes": [],
                                    "name": "ordermanagement_module",
                                    "id": "_OvrygC_bEeu3AaUHhOAxrQ",
                                    "packages": [
                                        {
                                            "interfaces": [],
                                            "component": [],
                                            "classes": [],
                                            "name": "common_module",
                                            "id": "_OvrygS_bEeu3AaUHhOAxrQ",
                                            "packages": [{
                                                "interfaces": [],
                                                "component": [],
                                                "classes": [],
                                                "name": "api_module",
                                                "id": "_Ovrygi_bEeu3AaUHhOAxrQ",
                                                "packages": [{
                                                    "dataTypes": [
                                                        {
                                                            "name": "OrderCto",
                                                            "id": "_OvsZkS_bEeu3AaUHhOAxrQ"
                                                        },
                                                        {
                                                            "name": "OrderEto",
                                                            "id": "_OvtAoC_bEeu3AaUHhOAxrQ"
                                                        }
                                                    ],
                                                    "interfaces": [],
                                                    "component": [],
                                                    "classes": [],
                                                    "name": "to_module",
                                                    "id": "_OvsZkC_bEeu3AaUHhOAxrQ",
                                                    "packages": []
                                                }]
                                            }]
                                        },
                                        {
                                            "interfaces": [],
                                            "component": [],
                                            "classes": [],
                                            "name": "logic_module",
                                            "id": "_Ovvc4C_bEeu3AaUHhOAxrQ",
                                            "packages": [{
                                                "dataTypes": [{
                                                    "name": "Ordermanagement",
                                                    "id": "_Ovvc4i_bEeu3AaUHhOAxrQ"
                                                }],
                                                "interfaces": [],
                                                "component": [],
                                                "classes": [],
                                                "name": "api_module",
                                                "id": "_Ovvc4S_bEeu3AaUHhOAxrQ",
                                                "packages": []
                                            }]
                                        }
                                    ]
                                },
                                {
                                    "interfaces": [],
                                    "component": [],
                                    "classes": [],
                                    "name": "usermanagement_module",
                                    "id": "_OvwrAC_bEeu3AaUHhOAxrQ",
                                    "packages": [
                                        {
                                            "interfaces": [],
                                            "component": [],
                                            "classes": [],
                                            "name": "common_module",
                                            "id": "_OvwrAS_bEeu3AaUHhOAxrQ",
                                            "packages": [{
                                                "interfaces": [],
                                                "component": [],
                                                "classes": [],
                                                "name": "api_module",
                                                "id": "_OvwrAi_bEeu3AaUHhOAxrQ",
                                                "packages": [{
                                                    "dataTypes": [
                                                        {
                                                            "name": "UserEto",
                                                            "id": "_OvxSES_bEeu3AaUHhOAxrQ"
                                                        },
                                                        {
                                                            "name": "UserQrCodeTo",
                                                            "id": "_PV9vYS_bEeu3AaUHhOAxrQ"
                                                        },
                                                        {
                                                            "name": "UserRoleEto",
                                                            "id": "_PV-WcC_bEeu3AaUHhOAxrQ"
                                                        },
                                                        {
                                                            "name": "UserRoleSearchCriteriaTo",
                                                            "id": "_PV-9gC_bEeu3AaUHhOAxrQ"
                                                        },
                                                        {
                                                            "name": "UserSearchCriteriaTo",
                                                            "id": "_PV-9gi_bEeu3AaUHhOAxrQ"
                                                        }
                                                    ],
                                                    "interfaces": [],
                                                    "component": [],
                                                    "classes": [],
                                                    "name": "to_module",
                                                    "id": "_OvxSEC_bEeu3AaUHhOAxrQ",
                                                    "packages": []
                                                }]
                                            }]
                                        },
                                        {
                                            "interfaces": [],
                                            "component": [],
                                            "classes": [],
                                            "name": "logic_module",
                                            "id": "_PV3BsC_bEeu3AaUHhOAxrQ",
                                            "packages": [{
                                                "dataTypes": [{
                                                    "name": "Usermanagement",
                                                    "id": "_PV3Bsi_bEeu3AaUHhOAxrQ"
                                                }],
                                                "interfaces": [],
                                                "component": [],
                                                "classes": [],
                                                "name": "api_module",
                                                "id": "_PV3BsS_bEeu3AaUHhOAxrQ",
                                                "packages": []
                                            }]
                                        },
                                        {
                                            "interfaces": [],
                                            "component": [],
                                            "classes": [],
                                            "name": "dataaccess_module",
                                            "id": "_PV_kkC_bEeu3AaUHhOAxrQ",
                                            "packages": [{
                                                "dataTypes": [
                                                    {
                                                        "name": "UserEntity",
                                                        "id": "_PV_kki_bEeu3AaUHhOAxrQ"
                                                    },
                                                    {
                                                        "name": "UserRoleEntity",
                                                        "id": "_PWALoC_bEeu3AaUHhOAxrQ"
                                                    }
                                                ],
                                                "interfaces": [],
                                                "component": [],
                                                "classes": [],
                                                "name": "api_module",
                                                "id": "_PV_kkS_bEeu3AaUHhOAxrQ",
                                                "packages": [{
                                                    "dataTypes": [
                                                        {
                                                            "name": "UserRepository",
                                                            "id": "_PWAysS_bEeu3AaUHhOAxrQ"
                                                        },
                                                        {
                                                            "name": "UserRoleRepository",
                                                            "id": "_PWAysy_bEeu3AaUHhOAxrQ"
                                                        }
                                                    ],
                                                    "interfaces": [],
                                                    "component": [],
                                                    "classes": [],
                                                    "name": "repo_module",
                                                    "id": "_PWAysC_bEeu3AaUHhOAxrQ",
                                                    "packages": []
                                                }]
                                            }]
                                        }
                                    ]
                                }
                            ]
                        }]
                    }]
                }]
            },
            {
                "interfaces": [],
                "component": [],
                "classes": [],
                "name": "java_module",
                "id": "_OuVHoC_bEeu3AaUHhOAxrQ",
                "packages": [
                    {
                        "dataTypes": [
                            {
                                "name": "MessageDigest",
                                "id": "_OuW80C_bEeu3AaUHhOAxrQ"
                            },
                            {
                                "name": "NoSuchAlgorithmException",
                                "id": "_OuYK8C_bEeu3AaUHhOAxrQ"
                            }
                        ],
                        "interfaces": [],
                        "component": [],
                        "classes": [],
                        "name": "security_module",
                        "id": "_OuWVwC_bEeu3AaUHhOAxrQ",
                        "packages": []
                    },
                    {
                        "dataTypes": [
                            {
                                "name": "Duration",
                                "id": "_OuaAIS_bEeu3AaUHhOAxrQ"
                            },
                            {
                                "name": "Instant",
                                "id": "_OuanMC_bEeu3AaUHhOAxrQ"
                            },
                            {
                                "name": "LocalDateTime",
                                "id": "_Ouh78C_bEeu3AaUHhOAxrQ"
                            },
                            {
                                "name": "ZoneId",
                                "id": "_OujKEC_bEeu3AaUHhOAxrQ"
                            }
                        ],
                        "interfaces": [],
                        "component": [],
                        "classes": [],
                        "name": "time_module",
                        "id": "_OuaAIC_bEeu3AaUHhOAxrQ",
                        "packages": []
                    },
                    {
                        "dataTypes": [
                            {
                                "name": "ArrayList",
                                "id": "_Oup3wC_bEeu3AaUHhOAxrQ"
                            },
                            {
                                "name": "List",
                                "id": "_OusUAC_bEeu3AaUHhOAxrQ"
                            },
                            {
                                "name": "Objects",
                                "id": "_Ouv-YC_bEeu3AaUHhOAxrQ"
                            }
                        ],
                        "interfaces": [],
                        "component": [],
                        "classes": [],
                        "name": "util_module",
                        "id": "_OulmUC_bEeu3AaUHhOAxrQ",
                        "packages": []
                    },
                    {
                        "dataTypes": [{
                            "name": "Long",
                            "id": "_OzlbES_bEeu3AaUHhOAxrQ"
                        }],
                        "interfaces": [],
                        "component": [],
                        "classes": [],
                        "name": "lang_module",
                        "id": "_OzlbEC_bEeu3AaUHhOAxrQ",
                        "packages": []
                    }
                ]
            },
            {
                "interfaces": [],
                "component": [],
                "classes": [],
                "name": "javax_module",
                "id": "_Ou2FAC_bEeu3AaUHhOAxrQ",
                "packages": [
                    {
                        "interfaces": [],
                        "component": [],
                        "classes": [],
                        "name": "annotation_module",
                        "id": "_Ou2sEC_bEeu3AaUHhOAxrQ",
                        "packages": [{
                            "dataTypes": [{
                                "name": "RolesAllowed",
                                "id": "_Ou3TIS_bEeu3AaUHhOAxrQ"
                            }],
                            "interfaces": [],
                            "component": [],
                            "classes": [],
                            "name": "security_module",
                            "id": "_Ou3TIC_bEeu3AaUHhOAxrQ",
                            "packages": []
                        }]
                    },
                    {
                        "dataTypes": [
                            {
                                "name": "Inject",
                                "id": "_Ou4hQS_bEeu3AaUHhOAxrQ"
                            },
                            {
                                "name": "Named",
                                "id": "_Ou5vYC_bEeu3AaUHhOAxrQ"
                            }
                        ],
                        "interfaces": [],
                        "component": [],
                        "classes": [],
                        "name": "inject_module",
                        "id": "_Ou4hQC_bEeu3AaUHhOAxrQ",
                        "packages": []
                    },
                    {
                        "interfaces": [],
                        "component": [],
                        "classes": [],
                        "name": "servlet_module",
                        "id": "_Ou8ysC_bEeu3AaUHhOAxrQ",
                        "packages": [{
                            "dataTypes": [{
                                "name": "HttpServletRequest",
                                "id": "_Ou9ZwS_bEeu3AaUHhOAxrQ"
                            }],
                            "interfaces": [],
                            "component": [],
                            "classes": [],
                            "name": "http_module",
                            "id": "_Ou9ZwC_bEeu3AaUHhOAxrQ",
                            "packages": []
                        }]
                    },
                    {
                        "dataTypes": [{
                            "name": "Transactional",
                            "id": "_Ou-n4C_bEeu3AaUHhOAxrQ"
                        }],
                        "interfaces": [],
                        "component": [],
                        "classes": [],
                        "name": "transaction_module",
                        "id": "_Ou-A0C_bEeu3AaUHhOAxrQ",
                        "packages": []
                    },
                    {
                        "dataTypes": [{
                            "name": "Valid",
                            "id": "_PUER8S_bEeu3AaUHhOAxrQ"
                        }],
                        "interfaces": [],
                        "component": [],
                        "classes": [],
                        "name": "validation_module",
                        "id": "_PUER8C_bEeu3AaUHhOAxrQ",
                        "packages": []
                    },
                    {
                        "interfaces": [],
                        "component": [],
                        "classes": [],
                        "name": "ws_module",
                        "id": "_PUE5AC_bEeu3AaUHhOAxrQ",
                        "packages": [{
                            "dataTypes": [
                                {
                                    "name": "Consumes",
                                    "id": "_PUE5Ai_bEeu3AaUHhOAxrQ"
                                },
                                {
                                    "name": "DELETE",
                                    "id": "_PUFgEC_bEeu3AaUHhOAxrQ"
                                },
                                {
                                    "name": "GET",
                                    "id": "_PUGHIC_bEeu3AaUHhOAxrQ"
                                },
                                {
                                    "name": "POST",
                                    "id": "_PUGHIi_bEeu3AaUHhOAxrQ"
                                },
                                {
                                    "name": "Path",
                                    "id": "_PUGuMS_bEeu3AaUHhOAxrQ"
                                },
                                {
                                    "name": "PathParam",
                                    "id": "_PUHVQS_bEeu3AaUHhOAxrQ"
                                },
                                {
                                    "name": "Produces",
                                    "id": "_PUH8US_bEeu3AaUHhOAxrQ"
                                }
                            ],
                            "interfaces": [],
                            "component": [],
                            "classes": [],
                            "name": "rs_module",
                            "id": "_PUE5AS_bEeu3AaUHhOAxrQ",
                            "packages": [{
                                "dataTypes": [{
                                    "name": "MediaType",
                                    "id": "_PUKYkC_bEeu3AaUHhOAxrQ"
                                }],
                                "interfaces": [],
                                "component": [],
                                "classes": [],
                                "name": "core_module",
                                "id": "_PUJxgC_bEeu3AaUHhOAxrQ",
                                "packages": []
                            }]
                        }]
                    }
                ]
            },
            {
                "interfaces": [],
                "component": [],
                "classes": [],
                "name": "org_module",
                "id": "_Ou_O8C_bEeu3AaUHhOAxrQ",
                "packages": [
                    {
                        "dataTypes": [
                            {
                                "name": "Logger",
                                "id": "_Ou_2AC_bEeu3AaUHhOAxrQ"
                            },
                            {
                                "name": "LoggerFactory",
                                "id": "_OvBEIC_bEeu3AaUHhOAxrQ"
                            }
                        ],
                        "interfaces": [],
                        "component": [],
                        "classes": [],
                        "name": "slf4j_module",
                        "id": "_Ou_O8S_bEeu3AaUHhOAxrQ",
                        "packages": []
                    },
                    {
                        "interfaces": [],
                        "component": [],
                        "classes": [],
                        "name": "springframework_module",
                        "id": "_OvCSQC_bEeu3AaUHhOAxrQ",
                        "packages": [
                            {
                                "interfaces": [],
                                "component": [],
                                "classes": [],
                                "name": "beans_module",
                                "id": "_OvCSQS_bEeu3AaUHhOAxrQ",
                                "packages": [{
                                    "interfaces": [],
                                    "component": [],
                                    "classes": [],
                                    "name": "factory_module",
                                    "id": "_OvC5UC_bEeu3AaUHhOAxrQ",
                                    "packages": [{
                                        "dataTypes": [{
                                            "name": "Value",
                                            "id": "_OvC5Ui_bEeu3AaUHhOAxrQ"
                                        }],
                                        "interfaces": [],
                                        "component": [],
                                        "classes": [],
                                        "name": "annotation_module",
                                        "id": "_OvC5US_bEeu3AaUHhOAxrQ",
                                        "packages": []
                                    }]
                                }]
                            },
                            {
                                "interfaces": [],
                                "component": [],
                                "classes": [],
                                "name": "data_module",
                                "id": "_OvDgYC_bEeu3AaUHhOAxrQ",
                                "packages": [{
                                    "dataTypes": [
                                        {
                                            "name": "Page",
                                            "id": "_OvEHcC_bEeu3AaUHhOAxrQ"
                                        },
                                        {
                                            "name": "PageImpl",
                                            "id": "_OvGjsC_bEeu3AaUHhOAxrQ"
                                        },
                                        {
                                            "name": "PageRequest",
                                            "id": "_OvHx0C_bEeu3AaUHhOAxrQ"
                                        },
                                        {
                                            "name": "Pageable",
                                            "id": "_OvMqUC_bEeu3AaUHhOAxrQ"
                                        }
                                    ],
                                    "interfaces": [],
                                    "component": [],
                                    "classes": [],
                                    "name": "domain_module",
                                    "id": "_OvDgYS_bEeu3AaUHhOAxrQ",
                                    "packages": []
                                }]
                            },
                            {
                                "interfaces": [],
                                "component": [],
                                "classes": [],
                                "name": "web_module",
                                "id": "_OvPGkC_bEeu3AaUHhOAxrQ",
                                "packages": [{
                                    "interfaces": [],
                                    "component": [],
                                    "classes": [],
                                    "name": "context_module",
                                    "id": "_OvPtoC_bEeu3AaUHhOAxrQ",
                                    "packages": [{
                                        "dataTypes": [
                                            {
                                                "name": "RequestContextHolder",
                                                "id": "_OvQUsC_bEeu3AaUHhOAxrQ"
                                            },
                                            {
                                                "name": "ServletRequestAttributes",
                                                "id": "_OvRi0C_bEeu3AaUHhOAxrQ"
                                            }
                                        ],
                                        "interfaces": [],
                                        "component": [],
                                        "classes": [],
                                        "name": "request_module",
                                        "id": "_OvPtoS_bEeu3AaUHhOAxrQ",
                                        "packages": []
                                    }]
                                }]
                            }
                        ]
                    },
                    {
                        "interfaces": [],
                        "component": [],
                        "classes": [],
                        "name": "jboss_module",
                        "id": "_PV5d8i_bEeu3AaUHhOAxrQ",
                        "packages": [{
                            "interfaces": [],
                            "component": [],
                            "classes": [],
                            "name": "aerogear_module",
                            "id": "_PV6FAC_bEeu3AaUHhOAxrQ",
                            "packages": [{
                                "interfaces": [],
                                "component": [],
                                "classes": [],
                                "name": "security_module",
                                "id": "_PV6FAS_bEeu3AaUHhOAxrQ",
                                "packages": [{
                                    "interfaces": [],
                                    "component": [],
                                    "classes": [],
                                    "name": "otp_module",
                                    "id": "_PV6FAi_bEeu3AaUHhOAxrQ",
                                    "packages": [{
                                        "dataTypes": [{
                                            "name": "Base32",
                                            "id": "_PV6FBC_bEeu3AaUHhOAxrQ"
                                        }],
                                        "interfaces": [],
                                        "component": [],
                                        "classes": [],
                                        "name": "api_module",
                                        "id": "_PV6FAy_bEeu3AaUHhOAxrQ",
                                        "packages": []
                                    }]
                                }]
                            }]
                        }]
                    }
                ]
            }
        ]
    }],
    "sourcefile": "MyThaiStar.java"
}]