[{
    "name": "NewModel",
    "type": "uml_class_diagram",
    "modules": [{
        "interfaces": [{
            "operations": [{
                "name": "draw",
                "id": "_-HKQYHEdEeuvZLw2CsBJbA",
                "returnType": "any"
            }],
            "name": "Shape",
            "attributes": [{
                "name": "noOfVertices",
                "id": "_7TxiwHEdEeuvZLw2CsBJbA"
            }],
            "id": "_5IAOwHEdEeuvZLw2CsBJbA"
        }],
        "classes": [],
        "usage": [],
        "name": "NewModel_module",
        "packages": []
    }],
    "sourcefile": "NewModel"
}]